rm-anova
…
# Load libraries
library(broom)
library(corrr)
library(ez)
library(tidyverse)

We will import the data from the file minneapolis.csv using the read_csv() function from the {tidyverse} package.

# Import data
mpls = read_csv("https://raw.githubusercontent.com/zief0002/musings/master/data/minneapolis.csv")

# View data
mpls

# A tibble: 22 × 6
   student read_5 read_6 read_7 read_8 minority
     <dbl>  <dbl>  <dbl>  <dbl>  <dbl>    <dbl>
 1       1    172    185    179    194        1
 2       2    200    210    209     NA        1
 3       3    191    199    203    215        1
 4       4    200    195    194     NA        1
 5       5    207    213    212    213        1
 6       6    191    189    206    195        1
 7       7    199    208    213    218        1
 8       8    191    194    194     NA        1
 9       9    149    154    174    177        1
10      10    200    212    213     NA        1
# ℹ 12 more rows
…
To re-structure the data from the wide to the long format, we will use the function pivot_longer() from the {tidyverse} package. (The pivot_wider() function re-structures data from the long to the wide format.) We specify the columns that include the data we want to combine into a single column in the long data (cols=), and the new variable names we want in the long data associated with the original variable names (names_to=), and the data values (values_to=). In our example:

# Re-structure data to long format
mpls_long = mpls_complete_cases |>
  pivot_longer(
    cols = read_5:read_8,
    names_to = "grade",
    values_to = "reading_score"
    )

# View long data
mpls_long

# A tibble: 56 × 4
   student minority grade  reading_score
     <dbl>    <dbl> <chr>          <dbl>
 1       1        1 read_5           172
 2       1        1 read_6           185
 3       1        1 read_7           179
 4       1        1 read_8           194
 5       3        1 read_5           191
 6       3        1 read_6           199
 7       3        1 read_7           203
 8       3        1 read_8           215
 9       5        1 read_5           207
10       5        1 read_6           213
# ℹ 46 more rows
…
