Kernel Density Estimation – Old Notes, Musings, and Miscellany
…
To begin, we will load two packages that we will use in this analysis.

# Load libraries
library(quantreg)
library(tidyverse)

The vlss-age.csv data contains the ages of 28,633 individuals (in years ranging from 0 to 99). We will import this data using the read_csv() function from the tidyverse package1.

# Import data
vlss = read_csv("https://raw.githubusercontent.com/zief0002/musings/master/data/vlss-age.csv")

# View data
vlss

# A tibble: 28,633 × 1
     age
   <dbl>
 1    68
 2    70
 3    31
 4    28
 5    22
 6     7
 7    57
 8    27
 9    23
10     0
# ℹ 28,623 more rows
…
