Exploration: Comparing Two Groups – Old Notes, Musings, and Miscellany
…
To begin, we will load three packages that we will use in this analysis.

# Load libraries
library(e1071)
library(tidyverse)

The data contains the household per capita expenditures for 5,999 households along with two demographic variables.

# Import data
vlss = read_csv("https://raw.githubusercontent.com/zief0002/musings/master/data/vlss-per-capita.csv")
# View data
vlss

# A tibble: 5,999 × 3
   expend area  region
    <dbl> <chr>  <dbl>
 1  184.  Rural      5
 2   62.7 Rural      5
 3  119.  Rural      5
 4   76.6 Rural      5
 5   97.5 Rural      5
 6  132.  Rural      5
 7   99.9 Rural      5
 8   80.0 Rural      5
 9   88.6 Rural      5
10  161.  Rural      5
# ℹ 5,989 more rows
…
